{
  "name": "haxepunk-gui",
  "url" : "https://bitbucket.org/Lythom/haxepunk-gui",
  "license": "BSD",
  "tags": ["flash", "haxepunk", "game"],
  "description": "HaxePunk GUI is a toolset to display user interfaces that works with HaxePunk engine. It provide some basic components to allow the user to interact with the game.",
  "version": "2.5.3",
  "releasenote": "fixes for native targe + tested with HaxePunk 2.5.2",
  "contributors": ["Lythom"],
  "dependencies": {
    "openfl": "",
    "HaxePunk": ""
  }
}